<?xml version="1.0" encoding="UTF-8"?>
<svg version="1.1" viewBox="0 0 1792 1408" xmlns="http://www.w3.org/2000/svg" xmlns:cc="http://creativecommons.org/ns#" xmlns:dc="http://purl.org/dc/elements/1.1/" xmlns:rdf="http://www.w3.org/1999/02/22-rdf-syntax-ns#">
<metadata>
<rdf:RDF>
<cc:Work rdf:about="">
<dc:format>image/svg+xml</dc:format>
<dc:type rdf:resource="http://purl.org/dc/dcmitype/StillImage"/>
<dc:title/>
</cc:Work>
</rdf:RDF>
</metadata>
<path d="m384 896c0-71-57-128-128-128s-128 57-128 128 57 128 128 128 128-57 128-128zm192-448c0-71-57-128-128-128s-128 57-128 128 57 128 128 128 128-57 128-128zm428 481 101-382c8-34-12-69-46-78s-69 12-78 46l-101 382c-79 6-148 61-170 142-27 103 35 208 137 235 103 27 208-35 235-137 21-81-13-163-78-208zm660-33c0-71-57-128-128-128s-128 57-128 128 57 128 128 128 128-57 128-128zm-640-640c0-71-57-128-128-128s-128 57-128 128 57 128 128 128 128-57 128-128zm448 192c0-71-57-128-128-128s-128 57-128 128 57 128 128 128 128-57 128-128zm320 448c0 172-49 338-141 483-12 18-32 29-54 29h-1402c-22 0-42-11-54-29-92-144-141-311-141-483 0-494 402-896 896-896s896 402 896 896z"/>
</svg>

